%YAML 1.1
%TAG !u! tag:unity3d.com,2011:
--- !u!1045 &1
EditorBuildSettings:
  m_ObjectHideFlags: 0
  serializedVersion: 2
  m_Scenes:
  - enabled: 1
    path: Assets/Main/Counter/Scenes/Counter.unity
    guid: 987acc77d063c49a8898c15416c41f70
  - enabled: 1
    path: Assets/Core/Core.unity
    guid: 7130795e5b9ea4d7fb7d7d1950fe0da0
  m_configObjects: {}
